{
    "data": {
        "callers": {
            "0": "12",
            "1": "5",
            "2": "22",
            "3": "9"
        },
        "createdAt": {
            "seconds": 1539109977,
            "nanoseconds": 520000000
        },
        "createdBy": "9BBbePphZJPakpSmoPrct2GCyYJ3",
        "info": {
            "dateName": "NOV 3",
            "dayName": "day1",
            "dayNum": 0,
            "locationName": "oneida",
            "stationName": "utica"
        },
        "packetsIn": {
            "0": "50",
            "1": "100",
            "2": "300",
            "3": "222"
        },
        "packetsOut": {
            "0": "400",
            "1": "400",
            "2": "500",
            "3": "444"
        },
        "volunteers": {
            "0": "50",
            "1": "33",
            "2": "56",
            "3": "111"
        }
    }
}